Анализ на данни, визуализация и тестване на хипотези.
…
Филтриране на редове с функцията filter().

diss %>% filter(elev > 1500)

# A tibble: 56 × 36
   plot  com   veg_type exp   top    elev slope  s_ha  s_m2    n2     e invasive
   <chr> <chr> <chr>    <chr> <chr> <dbl> <dbl> <dbl> <dbl> <dbl> <dbl>    <dbl>
 1 e155… c     f        n_ne… flat   1550    16    25     6    11   0.7        0
 2 e160… c     f        e_nw  conv…  1600    26    35     7    13   0.6        0
 3 e170… c     f        e_nw  conc…  1701    19    33     7    13   0.7        1
 4 see1… c     f        s_sw… flat   1519    26    34     5    14   0.7        2
 5 sse1… c     f        een_… conc…  1514    30    37     4     9   0.5        1
 6 sse1… c     f        een_… conv…  1549    20    17     2     3   0.5        0
 7 see1… d     f        e_nw  flat   1552    27    39     6    10   0.5        2
 8 see1… d     f        se_w  flat   1601    20    24     3     7   0.6        1
 9 see1… d     f        e_nw  conv…  1636    28    21     2     5   0.5        2
10 sse1… d     f        s_sw… flat   1574    25    13     1     3   0.5        1
# ℹ 46 more rows
# ℹ 24 more variables: rare <dbl>, tree_cover <dbl>, shrub_cover <dbl>,
#   herb_cover <dbl>, ph <dbl>, ch <dbl>, h <dbl>, cr <dbl>, th <dbl>,
#   trees <dbl>, shrubs <dbl>, semishrubs <dbl>, perennials <dbl>,
#   biennials <dbl>, annuals <dbl>, x1_5 <dbl>, x5_10 <dbl>, x10_15 <dbl>,
#   x15_20 <dbl>, x20_25 <dbl>, x25_30 <dbl>, x30_35 <dbl>, x_35 <dbl>,
#   total_stems <dbl>

diss %>% filter(elev > 1500 & top == "flat")

# A tibble: 28 × 36
   plot  com   veg_type exp   top    elev slope  s_ha  s_m2    n2     e invasive
   <chr> <chr> <chr>    <chr> <chr> <dbl> <dbl> <dbl> <dbl> <dbl> <dbl>    <dbl>
 1 e155… c     f        n_ne… flat   1550    16    25     6    11   0.7        0
 2 see1… c     f        s_sw… flat   1519    26    34     5    14   0.7        2
 3 see1… d     f        e_nw  flat   1552    27    39     6    10   0.5        2
 4 see1… d     f        se_w  flat   1601    20    24     3     7   0.6        1
 5 sse1… d     f        s_sw… flat   1574    25    13     1     3   0.5        1
 6 se15… f     f        e_nw  flat   1530    26    43     8    23   0.8        2
 7 se15… f     f        s_sw… flat   1586    25    45     5    17   0.6        7
 8 s180… j     s        s_sw… flat   1800    16    55    15    31   0.8        1
 9 s160… k     s        sse_… flat   1600    17    74    23    44   0.8        6
10 sse1… k     s        ees_… flat   1600    17    60    17    34   0.8        4
# ℹ 18 more rows
# ℹ 24 more variables: rare <dbl>, tree_cover <dbl>, shrub_cover <dbl>,
#   herb_cover <dbl>, ph <dbl>, ch <dbl>, h <dbl>, cr <dbl>, th <dbl>,
#   trees <dbl>, shrubs <dbl>, semishrubs <dbl>, perennials <dbl>,
#   biennials <dbl>, annuals <dbl>, x1_5 <dbl>, x5_10 <dbl>, x10_15 <dbl>,
#   x15_20 <dbl>, x20_25 <dbl>, x25_30 <dbl>, x30_35 <dbl>, x_35 <dbl>,
#   total_stems <dbl>

diss %>% filter(top == "concave" | exp == "e_nw")

# A tibble: 53 × 36
   plot  com   veg_type exp   top    elev slope  s_ha  s_m2    n2     e invasive
   <chr> <chr> <chr>    <chr> <chr> <dbl> <dbl> <dbl> <dbl> <dbl> <dbl>    <dbl>
 1 sw12… a     f        e_nw  conv…  1250    24    37     6    12   0.6        1
 2 sw12… a     f        een_… conc…  1276    26    33     3     8   0.5        1
 3 sw13… a     f        n_ne… conc…  1319    27    30     2     5   0.4        0
 4 ssw1… b     f        e_nw  flat   1305    29    17     1     3   0.5        1
 5 sw12… b     f        e_nw  conc…  1288    24    20     2     3   0.4        2
 6 w118… b     f        een_… conc…  1185    16    34     3    11   0.6        1
 7 w137… b     f        sse_… conc…  1370    15    28     3     7   0.5        2
 8 e144… c     f        e_nw  flat   1446    23    14     1     4   0.6        0
 9 e160… c     f        e_nw  conv…  1600    26    35     7    13   0.6        0
10 e170… c     f        e_nw  conc…  1701    19    33     7    13   0.7        1
# ℹ 43 more rows
# ℹ 24 more variables: rare <dbl>, tree_cover <dbl>, shrub_cover <dbl>,
#   herb_cover <dbl>, ph <dbl>, ch <dbl>, h <dbl>, cr <dbl>, th <dbl>,
#   trees <dbl>, shrubs <dbl>, semishrubs <dbl>, perennials <dbl>,
#   biennials <dbl>, annuals <dbl>, x1_5 <dbl>, x5_10 <dbl>, x10_15 <dbl>,
#   x15_20 <dbl>, x20_25 <dbl>, x25_30 <dbl>, x30_35 <dbl>, x_35 <dbl>,
#   total_stems <dbl>
…
diss_up_to_1000 <- diss %>% filter(!elev > 1500)

Подреждане с функцията arrange().

diss %>% arrange(elev)

# A tibble: 157 × 36
   plot  com   veg_type exp   top    elev slope  s_ha  s_m2    n2     e invasive
   <chr> <chr> <chr>    <chr> <chr> <dbl> <dbl> <dbl> <dbl> <dbl> <dbl>    <dbl>
 1 sww9… h     f        sse_… conv…   926    14    33     3    16   0.7        4
 2 sww9… h     f        een_… flat    960    15    60     9    28   0.7        8
 3 w967… h     f        een_… flat    967    11    66     7    28   0.7        9
 4 sww9… i     f        een_… flat    970    27    39     4    11   0.5        1
 5 sww9… i     f        e_nw  conv…   980     9    70    11    27   0.7        6
 6 ssw1… i     f        sse_… conv…  1010    17    37     7    16   0.7        1
 7 w103… h     f        n_ne… flat   1035     7    76     6    31   0.7       12
 8 sww1… i     f        e_nw  flat   1039    22    36    12    19   0.8        2
 9 w105… h     f        se_w  flat   1055    22    51     6    21   0.7        4
10 sww1… i     f        e_nw  flat   1072    17    37     3    16   0.7        1
# ℹ 147 more rows
# ℹ 24 more variables: rare <dbl>, tree_cover <dbl>, shrub_cover <dbl>,
#   herb_cover <dbl>, ph <dbl>, ch <dbl>, h <dbl>, cr <dbl>, th <dbl>,
#   trees <dbl>, shrubs <dbl>, semishrubs <dbl>, perennials <dbl>,
#   biennials <dbl>, annuals <dbl>, x1_5 <dbl>, x5_10 <dbl>, x10_15 <dbl>,
#   x15_20 <dbl>, x20_25 <dbl>, x25_30 <dbl>, x30_35 <dbl>, x_35 <dbl>,
#   total_stems <dbl>

diss %>% arrange(desc(elev))

# A tibble: 157 × 36
   plot  com   veg_type exp   top    elev slope  s_ha  s_m2    n2     e invasive
   <chr> <chr> <chr>    <chr> <chr> <dbl> <dbl> <dbl> <dbl> <dbl> <dbl>    <dbl>
 1 e212… m     s        e_nw  flat   2121    16    39    11    20   0.8        2
 2 se21… m     s        s_sw… conc…  2105     8    36    12    19   0.8        0
 3 sse2… m     s        s_sw… conv…  2096    10    36     9    16   0.7        1
 4 see2… m     s        s_sw… conc…  2039    13    40    13    21   0.8        3
 5 e202… m     s        e_nw  conc…  2020    22    53    11    33   0.8        3
 6 se20… l     s        s_sw… conc…  2000     7    56    16    34   0.8        4
 7 sww2… l     s        e_nw  conv…  2000    19    45    13    24   0.8        3
 8 sw20… m     s        sse_… conc…  2000    16    41     9    23   0.8        3
 9 w200… m     s        se_w  flat   2000    17    38    12    22   0.8        1
10 s200… n     s        s_sw… conv…  2000    10    53    13    28   0.8        2
# ℹ 147 more rows
# ℹ 24 more variables: rare <dbl>, tree_cover <dbl>, shrub_cover <dbl>,
#   herb_cover <dbl>, ph <dbl>, ch <dbl>, h <dbl>, cr <dbl>, th <dbl>,
#   trees <dbl>, shrubs <dbl>, semishrubs <dbl>, perennials <dbl>,
#   biennials <dbl>, annuals <dbl>, x1_5 <dbl>, x5_10 <dbl>, x10_15 <dbl>,
#   x15_20 <dbl>, x20_25 <dbl>, x25_30 <dbl>, x30_35 <dbl>, x_35 <dbl>,
#   total_stems <dbl>

Уникални редове с функцията distinct().

diss %>% distinct()

# A tibble: 157 × 36
   plot  com   veg_type exp   top    elev slope  s_ha  s_m2    n2     e invasive
   <chr> <chr> <chr>    <chr> <chr> <dbl> <dbl> <dbl> <dbl> <dbl> <dbl>    <dbl>
 1 sw10… a     f        een_… conv…  1085    36    42     2     9   0.4        0
 2 sw11… a     f        n_ne… flat   1130    34    33     2     5   0.4        0
 3 sw12… a     f        e_nw  conv…  1250    24    37     6    12   0.6        1
 4 sw12… a     f        een_… conc…  1276    26    33     3     8   0.5        1
 5 sw13… a     f        n_ne… conc…  1319    27    30     2     5   0.4        0
 6 sww1… a     f        n_ne… flat   1140    32    40     6    18   0.8        2
 7 sww1… a     f        n_ne… flat   1215    24    30     5    14   0.7        0
 8 sww1… a     f        n_ne… flat   1300    23    43     5    11   0.5        0
 9 e130… b     f        een_… flat   1301    28    24     5    11   0.7        0
10 s115… b     f        n_ne… flat   1156    14    26     2     3   0.4        0
# ℹ 147 more rows
# ℹ 24 more variables: rare <dbl>, tree_cover <dbl>, shrub_cover <dbl>,
#   herb_cover <dbl>, ph <dbl>, ch <dbl>, h <dbl>, cr <dbl>, th <dbl>,
#   trees <dbl>, shrubs <dbl>, semishrubs <dbl>, perennials <dbl>,
#   biennials <dbl>, annuals <dbl>, x1_5 <dbl>, x5_10 <dbl>, x10_15 <dbl>,
#   x15_20 <dbl>, x20_25 <dbl>, x25_30 <dbl>, x30_35 <dbl>, x_35 <dbl>,
#   total_stems <dbl>

diss %>% distinct(top, exp)

# A tibble: 21 × 2
   top     exp     
   <chr>   <chr>   
 1 convex  een_nnw 
 2 flat    n_ne_nne
 3 convex  e_nw    
 4 concave een_nnw 
 5 concave n_ne_nne
 6 flat    een_nnw 
 7 convex  ees_wwn 
 8 flat    e_nw    
 9 concave e_nw    
10 flat    se_w    
# ℹ 11 more rows

Преброяване на уникалните редове с функцията count().

diss %>% count(top, exp)

# A tibble: 21 × 3
   top     exp          n
   <chr>   <chr>    <int>
 1 concave e_nw         7
 2 concave een_nnw      3
 3 concave ees_wwn      2
 4 concave n_ne_nne     3
 5 concave s_sw_ssw     5
 6 concave se_w         5
 7 concave sse_wws      2
 8 convex  e_nw         9
 9 convex  een_nnw      7
10 convex  ees_wwn      5
# ℹ 11 more rows

diss %>% count(top, exp, sort = T)

# A tibble: 21 × 3
   top     exp          n
   <chr>   <chr>    <int>
 1 flat    n_ne_nne    21
 2 flat    e_nw        17
 3 flat    s_sw_ssw    17
 4 flat    een_nnw     11
 5 flat    se_w        11
 6 convex  e_nw         9
 7 concave e_nw         7
 8 convex  een_nnw      7
 9 convex  s_sw_ssw     6
10 convex  se_w         6
# ℹ 11 more rows

Създаване на нови колонки с функцията mutate().

diss %>% mutate(elev_slope = elev/slope) %>% View()

diss %>% mutate(elev_slope = elev/slope, .after = slope) %>% View()

diss %>% mutate(elev_slope = elev/slope, .after = slope, .keep = "used") %>% View()

Избор на колонки с функцията select().

diss %>% select(com, elev, slope)

# A tibble: 157 × 3
   com    elev slope
   <chr> <dbl> <dbl>
 1 a      1085    36
 2 a      1130    34
 3 a      1250    24
 4 a      1276    26
 5 a      1319    27
 6 a      1140    32
 7 a      1215    24
 8 a      1300    23
 9 b      1301    28
10 b      1156    14
# ℹ 147 more rows

diss %>% select(com:slope)

# A tibble: 157 × 6
   com   veg_type exp      top      elev slope
   <chr> <chr>    <chr>    <chr>   <dbl> <dbl>
 1 a     f        een_nnw  convex   1085    36
 2 a     f        n_ne_nne flat     1130    34
 3 a     f        e_nw     convex   1250    24
 4 a     f        een_nnw  concave  1276    26
 5 a     f        n_ne_nne concave  1319    27
 6 a     f        n_ne_nne flat     1140    32
 7 a     f        n_ne_nne flat     1215    24
 8 a     f        n_ne_nne flat     1300    23
 9 b     f        een_nnw  flat     1301    28
10 b     f        n_ne_nne flat     1156    14
# ℹ 147 more rows

diss %>% select(!com:slope)

# A tibble: 157 × 30
   plot        s_ha  s_m2    n2     e invasive  rare tree_cover shrub_cover
   <chr>      <dbl> <dbl> <dbl> <dbl>    <dbl> <dbl>      <dbl>       <dbl>
 1 sw1085nnw     42     2     9   0.4        0     0         85           3
 2 sw1130n       33     2     5   0.4        0     0         90           2
 3 sw1250nw      37     6    12   0.6        1     0         80           2
 4 sw1276nnw     33     3     8   0.5        1     0         85           0
 5 sw1319n       30     2     5   0.4        0     0         90           0
 6 sww1140nne    40     6    18   0.8        2     0         95           0
 7 sww1215n      30     5    14   0.7        0     0         85           0
 8 sww1300n      43     5    11   0.5        0     0         80           0
 9 e1301nnw      24     5    11   0.7        0     0         90           0
10 s1156ne       26     2     3   0.4        0     0         90           4
# ℹ 147 more rows
# ℹ 21 more variables: herb_cover <dbl>, ph <dbl>, ch <dbl>, h <dbl>, cr <dbl>,
#   th <dbl>, trees <dbl>, shrubs <dbl>, semishrubs <dbl>, perennials <dbl>,
#   biennials <dbl>, annuals <dbl>, x1_5 <dbl>, x5_10 <dbl>, x10_15 <dbl>,
#   x15_20 <dbl>, x20_25 <dbl>, x25_30 <dbl>, x30_35 <dbl>, x_35 <dbl>,
#   total_stems <dbl>

diss %>% select(where(is.character))

# A tibble: 157 × 5
   plot       com   veg_type exp      top    
   <chr>      <chr> <chr>    <chr>    <chr>  
 1 sw1085nnw  a     f        een_nnw  convex 
 2 sw1130n    a     f        n_ne_nne flat   
 3 sw1250nw   a     f        e_nw     convex 
 4 sw1276nnw  a     f        een_nnw  concave
 5 sw1319n    a     f        n_ne_nne concave
 6 sww1140nne a     f        n_ne_nne flat   
 7 sww1215n   a     f        n_ne_nne flat   
 8 sww1300n   a     f        n_ne_nne flat   
 9 e1301nnw   b     f        een_nnw  flat   
10 s1156ne    b     f        n_ne_nne flat   
# ℹ 147 more rows

diss %>% select(where(is.numeric))

# A tibble: 157 × 31
    elev slope  s_ha  s_m2    n2     e invasive  rare tree_cover shrub_cover
   <dbl> <dbl> <dbl> <dbl> <dbl> <dbl>    <dbl> <dbl>      <dbl>       <dbl>
 1  1085    36    42     2     9   0.4        0     0         85           3
 2  1130    34    33     2     5   0.4        0     0         90           2
 3  1250    24    37     6    12   0.6        1     0         80           2
 4  1276    26    33     3     8   0.5        1     0         85           0
 5  1319    27    30     2     5   0.4        0     0         90           0
 6  1140    32    40     6    18   0.8        2     0         95           0
 7  1215    24    30     5    14   0.7        0     0         85           0
 8  1300    23    43     5    11   0.5        0     0         80           0
 9  1301    28    24     5    11   0.7        0     0         90           0
10  1156    14    26     2     3   0.4        0     0         90           4
# ℹ 147 more rows
# ℹ 21 more variables: herb_cover <dbl>, ph <dbl>, ch <dbl>, h <dbl>, cr <dbl>,
#   th <dbl>, trees <dbl>, shrubs <dbl>, semishrubs <dbl>, perennials <dbl>,
#   biennials <dbl>, annuals <dbl>, x1_5 <dbl>, x5_10 <dbl>, x10_15 <dbl>,
#   x15_20 <dbl>, x20_25 <dbl>, x25_30 <dbl>, x30_35 <dbl>, x_35 <dbl>,
#   total_stems <dbl>

diss %>% select(starts_with("x"))

# A tibble: 157 × 8
    x1_5 x5_10 x10_15 x15_20 x20_25 x25_30 x30_35  x_35
   <dbl> <dbl>  <dbl>  <dbl>  <dbl>  <dbl>  <dbl> <dbl>
 1    45    63     38     21     20      5      0     3
 2   100   130     77     33     26      3      0     0
 3   166   265    153     18      4      4      0     0
 4     5    14     28     29     19     11     10     5
 5    10    24     23     25     17     20     11     1
 6    32    91     52     37     27      0      0     0
 7    32   134     82     61     17     12      0     4
 8     6    50     86     83     39      4      0     0
 9     6    17      6     17     22     11     10     9
10   143    52     13      8     26     24     17    12
# ℹ 147 more rows

Преименуване на колонки с функцията rename().

diss %>% rename(elev_m = elev)

# A tibble: 157 × 36
   plot       com   veg_type exp      top   elev_m slope  s_ha  s_m2    n2     e
   <chr>      <chr> <chr>    <chr>    <chr>  <dbl> <dbl> <dbl> <dbl> <dbl> <dbl>
 1 sw1085nnw  a     f        een_nnw  conv…   1085    36    42     2     9   0.4
 2 sw1130n    a     f        n_ne_nne flat    1130    34    33     2     5   0.4
 3 sw1250nw   a     f        e_nw     conv…   1250    24    37     6    12   0.6
 4 sw1276nnw  a     f        een_nnw  conc…   1276    26    33     3     8   0.5
 5 sw1319n    a     f        n_ne_nne conc…   1319    27    30     2     5   0.4
 6 sww1140nne a     f        n_ne_nne flat    1140    32    40     6    18   0.8
 7 sww1215n   a     f        n_ne_nne flat    1215    24    30     5    14   0.7
 8 sww1300n   a     f        n_ne_nne flat    1300    23    43     5    11   0.5
 9 e1301nnw   b     f        een_nnw  flat    1301    28    24     5    11   0.7
10 s1156ne    b     f        n_ne_nne flat    1156    14    26     2     3   0.4
# ℹ 147 more rows
# ℹ 25 more variables: invasive <dbl>, rare <dbl>, tree_cover <dbl>,
#   shrub_cover <dbl>, herb_cover <dbl>, ph <dbl>, ch <dbl>, h <dbl>, cr <dbl>,
#   th <dbl>, trees <dbl>, shrubs <dbl>, semishrubs <dbl>, perennials <dbl>,
#   biennials <dbl>, annuals <dbl>, x1_5 <dbl>, x5_10 <dbl>, x10_15 <dbl>,
#   x15_20 <dbl>, x20_25 <dbl>, x25_30 <dbl>, x30_35 <dbl>, x_35 <dbl>,
#   total_stems <dbl>

Преместване на колонки с функцията relocate().

diss %>% relocate(elev, slope)

# A tibble: 157 × 36
    elev slope plot  com   veg_type exp   top    s_ha  s_m2    n2     e invasive
   <dbl> <dbl> <chr> <chr> <chr>    <chr> <chr> <dbl> <dbl> <dbl> <dbl>    <dbl>
 1  1085    36 sw10… a     f        een_… conv…    42     2     9   0.4        0
 2  1130    34 sw11… a     f        n_ne… flat     33     2     5   0.4        0
 3  1250    24 sw12… a     f        e_nw  conv…    37     6    12   0.6        1
 4  1276    26 sw12… a     f        een_… conc…    33     3     8   0.5        1
 5  1319    27 sw13… a     f        n_ne… conc…    30     2     5   0.4        0
 6  1140    32 sww1… a     f        n_ne… flat     40     6    18   0.8        2
 7  1215    24 sww1… a     f        n_ne… flat     30     5    14   0.7        0
 8  1300    23 sww1… a     f        n_ne… flat     43     5    11   0.5        0
 9  1301    28 e130… b     f        een_… flat     24     5    11   0.7        0
10  1156    14 s115… b     f        n_ne… flat     26     2     3   0.4        0
# ℹ 147 more rows
# ℹ 24 more variables: rare <dbl>, tree_cover <dbl>, shrub_cover <dbl>,
#   herb_cover <dbl>, ph <dbl>, ch <dbl>, h <dbl>, cr <dbl>, th <dbl>,
#   trees <dbl>, shrubs <dbl>, semishrubs <dbl>, perennials <dbl>,
#   biennials <dbl>, annuals <dbl>, x1_5 <dbl>, x5_10 <dbl>, x10_15 <dbl>,
#   x15_20 <dbl>, x20_25 <dbl>, x25_30 <dbl>, x30_35 <dbl>, x_35 <dbl>,
#   total_stems <dbl>

diss %>% relocate(elev:s_m2, .before = plot)

# A tibble: 157 × 36
    elev slope  s_ha  s_m2 plot  com   veg_type exp   top      n2     e invasive
   <dbl> <dbl> <dbl> <dbl> <chr> <chr> <chr>    <chr> <chr> <dbl> <dbl>    <dbl>
 1  1085    36    42     2 sw10… a     f        een_… conv…     9   0.4        0
 2  1130    34    33     2 sw11… a     f        n_ne… flat      5   0.4        0
 3  1250    24    37     6 sw12… a     f        e_nw  conv…    12   0.6        1
 4  1276    26    33     3 sw12… a     f        een_… conc…     8   0.5        1
 5  1319    27    30     2 sw13… a     f        n_ne… conc…     5   0.4        0
 6  1140    32    40     6 sww1… a     f        n_ne… flat     18   0.8        2
 7  1215    24    30     5 sww1… a     f        n_ne… flat     14   0.7        0
 8  1300    23    43     5 sww1… a     f        n_ne… flat     11   0.5        0
 9  1301    28    24     5 e130… b     f        een_… flat     11   0.7        0
10  1156    14    26     2 s115… b     f        n_ne… flat      3   0.4        0
# ℹ 147 more rows
# ℹ 24 more variables: rare <dbl>, tree_cover <dbl>, shrub_cover <dbl>,
#   herb_cover <dbl>, ph <dbl>, ch <dbl>, h <dbl>, cr <dbl>, th <dbl>,
#   trees <dbl>, shrubs <dbl>, semishrubs <dbl>, perennials <dbl>,
#   biennials <dbl>, annuals <dbl>, x1_5 <dbl>, x5_10 <dbl>, x10_15 <dbl>,
#   x15_20 <dbl>, x20_25 <dbl>, x25_30 <dbl>, x30_35 <dbl>, x_35 <dbl>,
#   total_stems <dbl>
…
